{
    "fileFormatVersion": "1",
    "parameterSets": {
        "autopill-psz-vfx-lower-hopper-base.stl": {
            "part": "lower-hopper-base",
            "pill_width": 7.4,
            "pill_thick": 7.4,
            "pill_len": 19.6,
            "pincher": true
        },
        "autopill-psz-prog-lower-hopper-base.stl": {
            "part": "lower-hopper-base",
            "pill_width": 10.0,
            "pill_thick": 10.0,
            "pill_len": 8.8,
            "pincher": false
        },
        "autopill-psz-qel-lower-hopper-base.stl": {
            "part": "lower-hopper-base",
            "pill_width": 10.0,
            "pill_thick": 10.0,
            "pill_len": 24.6,
            "pincher": true
        },
        "autopill-psz-e2-lower-hopper-base.stl": {
            "part": "lower-hopper-base",
            "pill_width": 5.4,
            "pill_thick": 3.0,
            "pill_len": 8.8,
            "pincher": true
        },
        "autopill-psz-omep-lower-hopper-base.stl": {
            "part": "lower-hopper-base",
            "pill_width": 5.6,
            "pill_thick": 5.6,
            "pill_len": 14.3,
            "pincher": true
        },
        "autopill-psz-cital-lower-hopper-base.stl": {
            "part": "lower-hopper-base",
            "pill_width": 5.2,
            "pill_thick": 5.2,
            "pill_len": 10.2,
            "pincher": true
        },
        "autopill-psz-dph2-lower-hopper-base.stl": {
            "part": "lower-hopper-base",
            "pill_width": 5.7,
            "pill_thick": 3.7,
            "pill_len": 12.0,
            "pincher": true
        },
        "autopill-psz-adzen-lower-hopper-base.stl": {
            "part": "lower-hopper-base",
            "pill_width": 10.0,
            "pill_thick": 5.3,
            "pill_len": 10.0,
            "pincher": true
        },
        "autopill-psz-skt-lower-hopper-base.stl": {
            "part": "lower-hopper-base",
            "pill_width": 12.7,
            "pill_thick": 8.9,
            "pill_len": 12.7,
            "pincher": true
        },
        "autopill-psz-mm-lower-hopper-base.stl": {
            "part": "lower-hopper-base",
            "pill_width": 12.7,
            "pill_thick": 6.8,
            "pill_len": 12.7,
            "pincher": true
        },
        "autopill-psz-vfx-lower-hopper-base-shim.stl": {
            "part": "lower-hopper-base-shim",
            "pill_width": 7.4,
            "pill_thick": 7.4,
            "pill_len": 19.6,
            "pincher": true
        },
        "autopill-psz-prog-lower-hopper-base-shim.stl": {
            "part": "lower-hopper-base-shim",
            "pill_width": 10.0,
            "pill_thick": 10.0,
            "pill_len": 8.8,
            "pincher": false
        },
        "autopill-psz-qel-lower-hopper-base-shim.stl": {
            "part": "lower-hopper-base-shim",
            "pill_width": 10.0,
            "pill_thick": 10.0,
            "pill_len": 24.6,
            "pincher": true
        },
        "autopill-psz-e2-lower-hopper-base-shim.stl": {
            "part": "lower-hopper-base-shim",
            "pill_width": 5.4,
            "pill_thick": 3.0,
            "pill_len": 8.8,
            "pincher": true
        },
        "autopill-psz-omep-lower-hopper-base-shim.stl": {
            "part": "lower-hopper-base-shim",
            "pill_width": 5.6,
            "pill_thick": 5.6,
            "pill_len": 14.3,
            "pincher": true
        },
        "autopill-psz-cital-lower-hopper-base-shim.stl": {
            "part": "lower-hopper-base-shim",
            "pill_width": 5.2,
            "pill_thick": 5.2,
            "pill_len": 10.2,
            "pincher": true
        },
        "autopill-psz-dph2-lower-hopper-base-shim.stl": {
            "part": "lower-hopper-base-shim",
            "pill_width": 5.7,
            "pill_thick": 3.7,
            "pill_len": 12.0,
            "pincher": true
        },
        "autopill-psz-adzen-lower-hopper-base-shim.stl": {
            "part": "lower-hopper-base-shim",
            "pill_width": 10.0,
            "pill_thick": 5.3,
            "pill_len": 10.0,
            "pincher": true
        },
        "autopill-psz-skt-lower-hopper-base-shim.stl": {
            "part": "lower-hopper-base-shim",
            "pill_width": 12.7,
            "pill_thick": 8.9,
            "pill_len": 12.7,
            "pincher": true
        },
        "autopill-psz-mm-lower-hopper-base-shim.stl": {
            "part": "lower-hopper-base-shim",
            "pill_width": 12.7,
            "pill_thick": 6.8,
            "pill_len": 12.7,
            "pincher": true
        },
        "autopill-psz-vfx-lower-hopper-lid.stl": {
            "part": "lower-hopper-lid",
            "pill_width": 7.4,
            "pill_thick": 7.4,
            "pill_len": 19.6,
            "pincher": true
        },
        "autopill-psz-prog-lower-hopper-lid.stl": {
            "part": "lower-hopper-lid",
            "pill_width": 10.0,
            "pill_thick": 10.0,
            "pill_len": 8.8,
            "pincher": false
        },
        "autopill-psz-qel-lower-hopper-lid.stl": {
            "part": "lower-hopper-lid",
            "pill_width": 10.0,
            "pill_thick": 10.0,
            "pill_len": 24.6,
            "pincher": true
        },
        "autopill-psz-e2-lower-hopper-lid.stl": {
            "part": "lower-hopper-lid",
            "pill_width": 5.4,
            "pill_thick": 3.0,
            "pill_len": 8.8,
            "pincher": true
        },
        "autopill-psz-omep-lower-hopper-lid.stl": {
            "part": "lower-hopper-lid",
            "pill_width": 5.6,
            "pill_thick": 5.6,
            "pill_len": 14.3,
            "pincher": true
        },
        "autopill-psz-cital-lower-hopper-lid.stl": {
            "part": "lower-hopper-lid",
            "pill_width": 5.2,
            "pill_thick": 5.2,
            "pill_len": 10.2,
            "pincher": true
        },
        "autopill-psz-dph2-lower-hopper-lid.stl": {
            "part": "lower-hopper-lid",
            "pill_width": 5.7,
            "pill_thick": 3.7,
            "pill_len": 12.0,
            "pincher": true
        },
        "autopill-psz-adzen-lower-hopper-lid.stl": {
            "part": "lower-hopper-lid",
            "pill_width": 10.0,
            "pill_thick": 5.3,
            "pill_len": 10.0,
            "pincher": true
        },
        "autopill-psz-skt-lower-hopper-lid.stl": {
            "part": "lower-hopper-lid",
            "pill_width": 12.7,
            "pill_thick": 8.9,
            "pill_len": 12.7,
            "pincher": true
        },
        "autopill-psz-mm-lower-hopper-lid.stl": {
            "part": "lower-hopper-lid",
            "pill_width": 12.7,
            "pill_thick": 6.8,
            "pill_len": 12.7,
            "pincher": true
        },
        "autopill-psz-vfx-dispenser-tube-lower.stl": {
            "part": "dispenser-tube-lower",
            "pill_width": 7.4,
            "pill_thick": 7.4,
            "pill_len": 19.6,
            "pincher": true
        },
        "autopill-psz-prog-dispenser-tube-lower.stl": {
            "part": "dispenser-tube-lower",
            "pill_width": 10.0,
            "pill_thick": 10.0,
            "pill_len": 8.8,
            "pincher": false
        },
        "autopill-psz-qel-dispenser-tube-lower.stl": {
            "part": "dispenser-tube-lower",
            "pill_width": 10.0,
            "pill_thick": 10.0,
            "pill_len": 24.6,
            "pincher": true
        },
        "autopill-psz-e2-dispenser-tube-lower.stl": {
            "part": "dispenser-tube-lower",
            "pill_width": 5.4,
            "pill_thick": 3.0,
            "pill_len": 8.8,
            "pincher": true
        },
        "autopill-psz-omep-dispenser-tube-lower.stl": {
            "part": "dispenser-tube-lower",
            "pill_width": 5.6,
            "pill_thick": 5.6,
            "pill_len": 14.3,
            "pincher": true
        },
        "autopill-psz-cital-dispenser-tube-lower.stl": {
            "part": "dispenser-tube-lower",
            "pill_width": 5.2,
            "pill_thick": 5.2,
            "pill_len": 10.2,
            "pincher": true
        },
        "autopill-psz-dph2-dispenser-tube-lower.stl": {
            "part": "dispenser-tube-lower",
            "pill_width": 5.7,
            "pill_thick": 3.7,
            "pill_len": 12.0,
            "pincher": true
        },
        "autopill-psz-adzen-dispenser-tube-lower.stl": {
            "part": "dispenser-tube-lower",
            "pill_width": 10.0,
            "pill_thick": 5.3,
            "pill_len": 10.0,
            "pincher": true
        },
        "autopill-psz-skt-dispenser-tube-lower.stl": {
            "part": "dispenser-tube-lower",
            "pill_width": 12.7,
            "pill_thick": 8.9,
            "pill_len": 12.7,
            "pincher": true
        },
        "autopill-psz-mm-dispenser-tube-lower.stl": {
            "part": "dispenser-tube-lower",
            "pill_width": 12.7,
            "pill_thick": 6.8,
            "pill_len": 12.7,
            "pincher": true
        },
        "autopill-psz-vfx-dispenser-tube-upper.stl": {
            "part": "dispenser-tube-upper",
            "pill_width": 7.4,
            "pill_thick": 7.4,
            "pill_len": 19.6,
            "pincher": true
        },
        "autopill-psz-prog-dispenser-tube-upper.stl": {
            "part": "dispenser-tube-upper",
            "pill_width": 10.0,
            "pill_thick": 10.0,
            "pill_len": 8.8,
            "pincher": false
        },
        "autopill-psz-qel-dispenser-tube-upper.stl": {
            "part": "dispenser-tube-upper",
            "pill_width": 10.0,
            "pill_thick": 10.0,
            "pill_len": 24.6,
            "pincher": true
        },
        "autopill-psz-e2-dispenser-tube-upper.stl": {
            "part": "dispenser-tube-upper",
            "pill_width": 5.4,
            "pill_thick": 3.0,
            "pill_len": 8.8,
            "pincher": true
        },
        "autopill-psz-omep-dispenser-tube-upper.stl": {
            "part": "dispenser-tube-upper",
            "pill_width": 5.6,
            "pill_thick": 5.6,
            "pill_len": 14.3,
            "pincher": true
        },
        "autopill-psz-cital-dispenser-tube-upper.stl": {
            "part": "dispenser-tube-upper",
            "pill_width": 5.2,
            "pill_thick": 5.2,
            "pill_len": 10.2,
            "pincher": true
        },
        "autopill-psz-dph2-dispenser-tube-upper.stl": {
            "part": "dispenser-tube-upper",
            "pill_width": 5.7,
            "pill_thick": 3.7,
            "pill_len": 12.0,
            "pincher": true
        },
        "autopill-psz-adzen-dispenser-tube-upper.stl": {
            "part": "dispenser-tube-upper",
            "pill_width": 10.0,
            "pill_thick": 5.3,
            "pill_len": 10.0,
            "pincher": true
        },
        "autopill-psz-skt-dispenser-tube-upper.stl": {
            "part": "dispenser-tube-upper",
            "pill_width": 12.7,
            "pill_thick": 8.9,
            "pill_len": 12.7,
            "pincher": true
        },
        "autopill-psz-mm-dispenser-tube-upper.stl": {
            "part": "dispenser-tube-upper",
            "pill_width": 12.7,
            "pill_thick": 6.8,
            "pill_len": 12.7,
            "pincher": true
        },
        "autopill-psz-prog-dispenser-slider-upper.stl": {
            "part": "dispenser-slider-upper",
            "pill_width": 10.0,
            "pill_thick": 10.0,
            "pill_len": 8.8,
            "pincher": false
        },
        "autopill-psz-vfx-pincher.stl": {
            "part": "pincher",
            "pill_width": 7.4,
            "pill_thick": 7.4,
            "pill_len": 19.6,
            "pincher": true
        },
        "autopill-psz-qel-pincher.stl": {
            "part": "pincher",
            "pill_width": 10.0,
            "pill_thick": 10.0,
            "pill_len": 24.6,
            "pincher": true
        },
        "autopill-psz-e2-pincher.stl": {
            "part": "pincher",
            "pill_width": 5.4,
            "pill_thick": 3.0,
            "pill_len": 8.8,
            "pincher": true
        },
        "autopill-psz-omep-pincher.stl": {
            "part": "pincher",
            "pill_width": 5.6,
            "pill_thick": 5.6,
            "pill_len": 14.3,
            "pincher": true
        },
        "autopill-psz-cital-pincher.stl": {
            "part": "pincher",
            "pill_width": 5.2,
            "pill_thick": 5.2,
            "pill_len": 10.2,
            "pincher": true
        },
        "autopill-psz-dph2-pincher.stl": {
            "part": "pincher",
            "pill_width": 5.7,
            "pill_thick": 3.7,
            "pill_len": 12.0,
            "pincher": true
        },
        "autopill-psz-adzen-pincher.stl": {
            "part": "pincher",
            "pill_width": 10.0,
            "pill_thick": 5.3,
            "pill_len": 10.0,
            "pincher": true
        },
        "autopill-psz-skt-pincher.stl": {
            "part": "pincher",
            "pill_width": 12.7,
            "pill_thick": 8.9,
            "pill_len": 12.7,
            "pincher": true
        },
        "autopill-psz-mm-pincher.stl": {
            "part": "pincher",
            "pill_width": 12.7,
            "pill_thick": 6.8,
            "pill_len": 12.7,
            "pincher": true
        },
        "autopill-beltwheel.stl": {
            "part": "beltwheel"
        },
        "autopill-beltwheel-ext.stl": {
            "part": "beltwheel-ext"
        },
        "autopill-pillwheel-gear-l-w5.2mm.stl": {
            "part": "pillwheel-gear-l",
            "pill_width": 5.2,
            "pill_thick": 5.2
        },
        "autopill-pillwheel-gear-l-old-w5.2mm.stl": {
            "part": "pillwheel-gear-l",
            "pill_width": 5.2,
            "pill_thick": 5.2,
            "pillgear_old_interface": true
        },
        "autopill-pillwheel-gear-l-hgr-w5.2mm.stl": {
            "part": "pillwheel-gear-l",
            "pill_width": 5.2,
            "pill_thick": 5.2,
            "planetgear_hgr": true
        },
        "autopill-pillwheel-gear-l-w5.4mm.stl": {
            "part": "pillwheel-gear-l",
            "pill_width": 5.4,
            "pill_thick": 5.4
        },
        "autopill-pillwheel-gear-l-old-w5.4mm.stl": {
            "part": "pillwheel-gear-l",
            "pill_width": 5.4,
            "pill_thick": 5.4,
            "pillgear_old_interface": true
        },
        "autopill-pillwheel-gear-l-hgr-w5.4mm.stl": {
            "part": "pillwheel-gear-l",
            "pill_width": 5.4,
            "pill_thick": 5.4,
            "planetgear_hgr": true
        },
        "autopill-pillwheel-gear-l-w5.6mm.stl": {
            "part": "pillwheel-gear-l",
            "pill_width": 5.6,
            "pill_thick": 5.6
        },
        "autopill-pillwheel-gear-l-old-w5.6mm.stl": {
            "part": "pillwheel-gear-l",
            "pill_width": 5.6,
            "pill_thick": 5.6,
            "pillgear_old_interface": true
        },
        "autopill-pillwheel-gear-l-hgr-w5.6mm.stl": {
            "part": "pillwheel-gear-l",
            "pill_width": 5.6,
            "pill_thick": 5.6,
            "planetgear_hgr": true
        },
        "autopill-pillwheel-gear-l-w5.7mm.stl": {
            "part": "pillwheel-gear-l",
            "pill_width": 5.7,
            "pill_thick": 5.7
        },
        "autopill-pillwheel-gear-l-old-w5.7mm.stl": {
            "part": "pillwheel-gear-l",
            "pill_width": 5.7,
            "pill_thick": 5.7,
            "pillgear_old_interface": true
        },
        "autopill-pillwheel-gear-l-hgr-w5.7mm.stl": {
            "part": "pillwheel-gear-l",
            "pill_width": 5.7,
            "pill_thick": 5.7,
            "planetgear_hgr": true
        },
        "autopill-pillwheel-gear-l-w7.4mm.stl": {
            "part": "pillwheel-gear-l",
            "pill_width": 7.4,
            "pill_thick": 7.4
        },
        "autopill-pillwheel-gear-l-old-w7.4mm.stl": {
            "part": "pillwheel-gear-l",
            "pill_width": 7.4,
            "pill_thick": 7.4,
            "pillgear_old_interface": true
        },
        "autopill-pillwheel-gear-l-hgr-w7.4mm.stl": {
            "part": "pillwheel-gear-l",
            "pill_width": 7.4,
            "pill_thick": 7.4,
            "planetgear_hgr": true
        },
        "autopill-pillwheel-gear-l-w10.0mm.stl": {
            "part": "pillwheel-gear-l",
            "pill_width": 10.0,
            "pill_thick": 10.0
        },
        "autopill-pillwheel-gear-l-old-w10.0mm.stl": {
            "part": "pillwheel-gear-l",
            "pill_width": 10.0,
            "pill_thick": 10.0,
            "pillgear_old_interface": true
        },
        "autopill-pillwheel-gear-l-hgr-w10.0mm.stl": {
            "part": "pillwheel-gear-l",
            "pill_width": 10.0,
            "pill_thick": 10.0,
            "planetgear_hgr": true
        },
        "autopill-pillwheel-gear-l-w12.7mm.stl": {
            "part": "pillwheel-gear-l",
            "pill_width": 12.7,
            "pill_thick": 12.7
        },
        "autopill-pillwheel-gear-l-old-w12.7mm.stl": {
            "part": "pillwheel-gear-l",
            "pill_width": 12.7,
            "pill_thick": 12.7,
            "pillgear_old_interface": true
        },
        "autopill-pillwheel-gear-l-hgr-w12.7mm.stl": {
            "part": "pillwheel-gear-l",
            "pill_width": 12.7,
            "pill_thick": 12.7,
            "planetgear_hgr": true
        },
        "autopill-pillwheel-gear-r-w5.2mm.stl": {
            "part": "pillwheel-gear-r",
            "pill_width": 5.2,
            "pill_thick": 5.2
        },
        "autopill-pillwheel-gear-r-hgr-w5.2mm.stl": {
            "part": "pillwheel-gear-r",
            "pill_width": 5.2,
            "pill_thick": 5.2,
            "planetgear_hgr": true
        },
        "autopill-pillwheel-gear-r-w5.4mm.stl": {
            "part": "pillwheel-gear-r",
            "pill_width": 5.4,
            "pill_thick": 5.4
        },
        "autopill-pillwheel-gear-r-hgr-w5.4mm.stl": {
            "part": "pillwheel-gear-r",
            "pill_width": 5.4,
            "pill_thick": 5.4,
            "planetgear_hgr": true
        },
        "autopill-pillwheel-gear-r-w5.6mm.stl": {
            "part": "pillwheel-gear-r",
            "pill_width": 5.6,
            "pill_thick": 5.6
        },
        "autopill-pillwheel-gear-r-hgr-w5.6mm.stl": {
            "part": "pillwheel-gear-r",
            "pill_width": 5.6,
            "pill_thick": 5.6,
            "planetgear_hgr": true
        },
        "autopill-pillwheel-gear-r-w5.7mm.stl": {
            "part": "pillwheel-gear-r",
            "pill_width": 5.7,
            "pill_thick": 5.7
        },
        "autopill-pillwheel-gear-r-hgr-w5.7mm.stl": {
            "part": "pillwheel-gear-r",
            "pill_width": 5.7,
            "pill_thick": 5.7,
            "planetgear_hgr": true
        },
        "autopill-pillwheel-gear-r-w7.4mm.stl": {
            "part": "pillwheel-gear-r",
            "pill_width": 7.4,
            "pill_thick": 7.4
        },
        "autopill-pillwheel-gear-r-hgr-w7.4mm.stl": {
            "part": "pillwheel-gear-r",
            "pill_width": 7.4,
            "pill_thick": 7.4,
            "planetgear_hgr": true
        },
        "autopill-pillwheel-gear-r-w10.0mm.stl": {
            "part": "pillwheel-gear-r",
            "pill_width": 10.0,
            "pill_thick": 10.0
        },
        "autopill-pillwheel-gear-r-hgr-w10.0mm.stl": {
            "part": "pillwheel-gear-r",
            "pill_width": 10.0,
            "pill_thick": 10.0,
            "planetgear_hgr": true
        },
        "autopill-pillwheel-gear-r-w12.7mm.stl": {
            "part": "pillwheel-gear-r",
            "pill_width": 12.7,
            "pill_thick": 12.7
        },
        "autopill-pillwheel-gear-r-hgr-w12.7mm.stl": {
            "part": "pillwheel-gear-r",
            "pill_width": 12.7,
            "pill_thick": 12.7,
            "planetgear_hgr": true
        },
        "autopill-planetgear-sun.stl": {
            "part": "planetgear-sun"
        },
        "autopill-planetgear-sun-hgr.stl": {
            "part": "planetgear-sun",
            "planetgear_hgr": true
        },
        "autopill-planetgear-planet.stl": {
            "part": "planetgear-planet"
        },
        "autopill-planetgear-planet-hgr.stl": {
            "part": "planetgear-planet",
            "planetgear_hgr": true
        },
        "autopill-planetgear-ring.stl": {
            "part": "planetgear-ring"
        },
        "autopill-planetgear-ring-hgr.stl": {
            "part": "planetgear-ring",
            "planetgear_hgr": true
        },
        "autopill-planetgear-carrier.stl": {
            "part": "planetgear-carrier",
            "planetgear_hgr": true
        },
        "autopill-planetgear-shim.stl": {
            "part": "planetgear-shim"
        },
        "autopill-planetgear-beltwheel.stl": {
            "part": "planetgear-beltwheel"
        },
        "autopill-pillwheel.stl": {
            "part": "pillwheel"
        },
        "autopill-pillwheel-holder.stl": {
            "part": "pillwheel-holder"
        },
        "autopill-motorbeltwheel.stl": {
            "part": "motorbeltwheel"
        },
        "autopill-pillwheel-flex-cover.stl": {
            "part": "pillwheel-flex-cover"
        },
        "autopill-pillwheel-poker.stl": {
            "part": "pillwheel-poker"
        },
        "autopill-pillwheel-poker-cam-follower.stl": {
            "part": "pillwheel-poker-cam-follower"
        },
        "autopill-pillwheel-insert.stl": {
            "part": "pillwheel-insert"
        },
        "autopill-pillwheel-gear-spacer.stl": {
            "part": "pillwheel-gear-spacer"
        },
        "autopill-disptopmount.stl": {
            "part": "disptopmount"
        },
        "autopill-disptopmount-pg-l.stl": {
            "part": "disptopmount-pg-l"
        },
        "autopill-disptopmount-pg-r.stl": {
            "part": "disptopmount-pg-r"
        },
        "autopill-dispenser-wirebox.stl": {
            "part": "dispenser-wirebox"
        },
        "autopill-dispenser-wirebox-vc.stl": {
            "part": "dispenser-wirebox",
            "dispenser_connector_vertical": true
        },
        "autopill-dispenser.stl": {
            "part": "dispenser"
        },
        "autopill-dispenser-pincher.stl": {
            "part": "dispenser",
            "pincher": 1
        },
        "autopill-dispenser-slider.stl": {
            "part": "dispenser-slider"
        },
        "autopill-dispenser-slider-pincher.stl": {
            "part": "dispenser-slider",
            "pincher": 1
        },
        "autopill-dispenser-pcb-spacer-front.stl": {
            "part": "dispenser-pcb-spacer-front"
        },
        "autopill-dispenser-pcb-spacer-rear.stl": {
            "part": "dispenser-pcb-spacer-rear"
        },
        "autopill-dispenser-button.stl": {
            "part": "dispenser-button"
        },
        "autopill-led-holder.stl": {
            "part": "led-holder"
        },
        "autopill-pincher-slider.stl": {
            "part": "pincher-slider",
            "pincher": 1
        },
        "autopill-servo-arm.stl": {
            "part": "servo-arm"
        },
        "autopill-riser-1.stl": {
            "part": "riser",
            "riser_height": 1
        },
        "autopill-riser-2.stl": {
            "part": "riser",
            "riser_height": 2
        },
        "autopill-riser-3.stl": {
            "part": "riser",
            "riser_height": 3
        },
        "autopill-riser-dbl-r-1.stl": {
            "part": "riser-dbl-r",
            "riser_height": 1
        },
        "autopill-riser-dbl-r-2.stl": {
            "part": "riser-dbl-r",
            "riser_height": 2
        },
        "autopill-riser-dbl-r-3.stl": {
            "part": "riser-dbl-r",
            "riser_height": 3
        },
        "autopill-riser-dbl-r-inner.stl": {
            "part": "riser-dbl-r",
            "riser_height": 0
        },
        "autopill-riser-dbl-l-1.stl": {
            "part": "riser-dbl-l",
            "riser_height": 1
        },
        "autopill-riser-dbl-l-2.stl": {
            "part": "riser-dbl-l",
            "riser_height": 2
        },
        "autopill-riser-dbl-l-3.stl": {
            "part": "riser-dbl-l",
            "riser_height": 3
        },
        "autopill-riser-dbl-l-inner.stl": {
            "part": "riser-dbl-l",
            "riser_height": 0
        },
        "autopill-stackable-spacer.stl": {
            "part": "stackable-spacer"
        },
        "autopill-basemodule-r.stl": {
            "part": "basemodule-r"
        },
        "autopill-basemodule-l.stl": {
            "part": "basemodule-l"
        },
        "autopill-slide-insert.stl": {
            "part": "slide-insert"
        },
        "autopill-slide-insert-x2.stl": {
            "part": "slide-insert",
            "slide_insert_length": 2
        },
        "autopill-slide-insert-x3.stl": {
            "part": "slide-insert",
            "slide_insert_length": 3
        },
        "autopill-slide-insert-x4.stl": {
            "part": "slide-insert",
            "slide_insert_length": 4
        },
        "autopill-idc-holder-shim.stl": {
            "part": "idc-holder-shim"
        },
        "autopill-pilltray.stl": {
            "part": "pilltray"
        },
        "autopill-pilltray-holder.stl": {
            "part": "pilltray-holder"
        },
        "autopill-pilltray-holder-top.stl": {
            "part": "pilltray-holder-top"
        },
        "autopill-pilltray-holder-top-aligntool-1.stl": {
            "part": "pilltray-holder-top-aligntool-1"
        },
        "autopill-pilltray-holder-top-aligntool-2.stl": {
            "part": "pilltray-holder-top-aligntool-2"
        },
        "autopill-pilltray-holder-rear-slide.stl": {
            "part": "pilltray-holder-rear-slide"
        },
        "autopill-hopper.stl": {
            "part": "hopper"
        },
        "autopill-hopper-lid.stl": {
            "part": "hopper-lid"
        },
        "autopill-spiral-l.stl": {
            "part": "spiral-l"
        },
        "autopill-spiral-r.stl": {
            "part": "spiral-r"
        },
        "autopill-pcb-model.stl": {
            "part": "pcb-model"
        },
        "autopill-pcb-model-main.stl": {
            "part": "pcb-model-main"
        },
        "autopill-pcb-model-led.stl": {
            "part": "pcb-model-led"
        },
        "autopill-mainbox.stl": {
            "part": "mainbox"
        },
        "autopill-mainbox-pcb-spacer.stl": {
            "part": "mainbox-pcb-spacer"
        },
        "autopill-mainbox-lid.stl": {
            "part": "mainbox-lid"
        },
        "autopill-mainbox-lid-inlay-front.stl": {
            "part": "mainbox-lid-inlay-front"
        },
        "autopill-mainbox-lid-inlay-back.stl": {
            "part": "mainbox-lid-inlay-back"
        },
        "autopill-pi-mount.stl": {
            "part": "pi-mount"
        },
        "autopill-pi-mount-lid.stl": {
            "part": "pi-mount-lid"
        },
        "autopill-pi-mount-lid-inlay-led.stl": {
            "part": "pi-mount-lid-inlay-led"
        },
        "autopill-pi-mount-lid-inlay-front.stl": {
            "part": "pi-mount-lid-inlay-front"
        },
        "autopill-pi-mount-lid-inlay-back.stl": {
            "part": "pi-mount-lid-inlay-back"
        },
        "autopill-pi-button-dpad.stl": {
            "part": "pi-button-dpad"
        },
        "autopill-pi-button-dpad-inlay.stl": {
            "part": "pi-button-dpad-inlay"
        },
        "autopill-button-pcb-cover.stl": {
            "part": "button-pcb-cover"
        },
        "autopill-display-spacer.stl": {
            "part": "display-spacer"
        },
        "autopill-interface-spacer.stl": {
            "part": "interface-spacer"
        },
        "autopill-motor-pin-spacer.stl": {
            "part": "motor-pin-spacer"
        },
        "autopill-md-spacer.stl": {
            "part": "md-spacer"
        },
        "autopill-md-solder-jig.stl": {
            "part": "md-solder-jig"
        },
        "autopill-wire-holder-r.stl": {
            "part": "wire-holder-r"
        },
        "autopill-wire-holder-l.stl": {
            "part": "wire-holder-l"
        }
    }
}